TP3/mips_tb.vcd
$date
  Wed Oct 12 13:14:43 2016
$end
$version
  GHDL v0
$end
$timescale
  1 fs
$end
$var reg 1 ! dump_p $end
$var reg 1 " reset_p $end
$var reg 1 # clk_p $end
$var reg 32 $ pc_p[31:0] $end
$var reg 32 % instr_p[31:0] $end
$scope module mips_0 $end
$var reg 1 & reset $end
$var reg 1 ' clk $end
$var reg 1 ( dump $end
$var reg 32 ) instr[31:0] $end
$var reg 32 * pc[31:0] $end
$var reg 32 + instr_p[31:0] $end
$var reg 32 , pc_p[31:0] $end
$var reg 1 - memtoreg_p $end
$var reg 1 . memwrite_p $end
$var reg 1 / branch_p $end
$var reg 1 0 alusrc_p $end
$var reg 1 1 regdst_p $end
$var reg 1 2 regwrite_p $end
$var reg 1 3 jump_p $end
$var reg 3 4 alucontrol_p[2:0] $end
$scope module controller_0 $end
$var reg 6 5 op[5:0] $end
$var reg 6 6 funct[5:0] $end
$var reg 1 7 memtoreg $end
$var reg 1 8 memwrite $end
$var reg 1 9 branch $end
$var reg 1 : alusrc $end
$var reg 1 ; regdst $end
$var reg 1 < regwrite $end
$var reg 1 = jump $end
$var reg 3 > alucontrol[2:0] $end
$var reg 2 ? aluop_aux[1:0] $end
$scope module maindec_0 $end
$var reg 6 @ op[5:0] $end
$var reg 1 A memtoreg $end
$var reg 1 B memwrite $end
$var reg 1 C branch $end
$var reg 1 D alusrc $end
$var reg 1 E regdst $end
$var reg 1 F regwrite $end
$var reg 1 G jump $end
$var reg 2 H aluop[1:0] $end
$upscope $end
$scope module aludec_0 $end
$var reg 6 I funct[5:0] $end
$var reg 2 J aluop[1:0] $end
$var reg 3 K alucontrol[2:0] $end
$upscope $end
$upscope $end
$scope module datapath_0 $end
$var reg 1 L memtoreg $end
$var reg 1 M memwrite $end
$var reg 1 N branch $end
$var reg 1 O alusrc $end
$var reg 1 P regdst $end
$var reg 1 Q regwrite $end
$var reg 1 R jump $end
$var reg 1 S dump $end
$var reg 1 T reset $end
$var reg 1 U clk $end
$var reg 3 V alucontrol[2:0] $end
$var reg 32 W pc[31:0] $end
$var reg 32 X instr[31:0] $end
$var reg 1 Y pcsrc $end
$var reg 1 Z zero $end
$var reg 32 [ pcjump[31:0] $end
$var reg 32 \ pcbranch[31:0] $end
$var reg 32 ] pcnext[31:0] $end
$var reg 32 ^ pc_2[31:0] $end
$var reg 32 _ pc_3[31:0] $end
$var reg 32 ` instr_2[31:0] $end
$var reg 32 a pcplus4[31:0] $end
$var reg 32 b signimm[31:0] $end
$var reg 32 c srcb[31:0] $end
$var reg 32 d srca[31:0] $end
$var reg 32 e aluresult[31:0] $end
$var reg 32 f writedata[31:0] $end
$var reg 32 g readdata[31:0] $end
$var reg 32 h result[31:0] $end
$var reg 5 i writereg[4:0] $end
$var reg 32 j sl2_adder[31:0] $end
$scope module pcsrc_mux $end
$var reg 32 k d0[31:0] $end
$var reg 32 l d1[31:0] $end
$var reg 1 m s $end
$var reg 32 n y[31:0] $end
$upscope $end
$scope module pcjump_mux $end
$var reg 32 o d0[31:0] $end
$var reg 32 p d1[31:0] $end
$var reg 1 q s $end
$var reg 32 r y[31:0] $end
$upscope $end
$scope module flopr_0 $end
$var reg 32 s d[31:0] $end
$var reg 1 t reset $end
$var reg 1 u clk $end
$var reg 32 v q[31:0] $end
$upscope $end
$scope module adder_plus $end
$var reg 32 w a[31:0] $end
$var reg 32 x b[31:0] $end
$var reg 32 y y[31:0] $end
$upscope $end
$scope module imem_0 $end
$var reg 6 z a[5:0] $end
$var reg 32 { rd[31:0] $end
$upscope $end
$scope module regfile_0 $end
$var reg 5 | ra1[4:0] $end
$var reg 5 } ra2[4:0] $end
$var reg 5 !" wa3[4:0] $end
$var reg 32 "" wd3[31:0] $end
$var reg 1 #" we3 $end
$var reg 1 $" clk $end
$var reg 32 %" rd1[31:0] $end
$var reg 32 &" rd2[31:0] $end
$comment r is not handled $end
$upscope $end
$scope module signext_0 $end
$var reg 32 '" y[31:0] $end
$var reg 16 (" a[15:0] $end
$scope module gen(15) $end
$upscope $end
$scope module gen(16) $end
$upscope $end
$scope module gen(17) $end
$upscope $end
$scope module gen(18) $end
$upscope $end
$scope module gen(19) $end
$upscope $end
$scope module gen(20) $end
$upscope $end
$scope module gen(21) $end
$upscope $end
$scope module gen(22) $end
$upscope $end
$scope module gen(23) $end
$upscope $end
$scope module gen(24) $end
$upscope $end
$scope module gen(25) $end
$upscope $end
$scope module gen(26) $end
$upscope $end
$scope module gen(27) $end
$upscope $end
$scope module gen(28) $end
$upscope $end
$scope module gen(29) $end
$upscope $end
$scope module gen(30) $end
$upscope $end
$scope module gen(31) $end
$upscope $end
$upscope $end
$scope module regdst_mux $end
$var reg 5 )" d0[4:0] $end
$var reg 5 *" d1[4:0] $end
$var reg 1 +" s $end
$var reg 5 ," y[4:0] $end
$upscope $end
$scope module alusrc_mux $end
$var reg 32 -" d0[31:0] $end
$var reg 32 ." d1[31:0] $end
$var reg 1 /" s $end
$var reg 32 0" y[31:0] $end
$upscope $end
$scope module alu_0 $end
$var reg 32 1" a[31:0] $end
$var reg 32 2" b[31:0] $end
$var reg 3 3" alucontrol[2:0] $end
$var reg 32 4" result[31:0] $end
$var reg 1 5" zero $end
$var reg 32 6" res_tem[31:0] $end
$upscope $end
$scope module adder_bran $end
$var reg 32 7" a[31:0] $end
$var reg 32 8" b[31:0] $end
$var reg 32 9" y[31:0] $end
$upscope $end
$scope module dmem_0 $end
$var reg 1 :" clk $end
$var reg 1 ;" we $end
$var reg 32 <" a[31:0] $end
$var reg 32 =" wd[31:0] $end
$var reg 32 >" rd[31:0] $end
$var reg 1 ?" dump $end
$comment mem is not handled $end
$upscope $end
$scope module memto_mux2 $end
$var reg 32 @" d0[31:0] $end
$var reg 32 A" d1[31:0] $end
$var reg 1 B" s $end
$var reg 32 C" y[31:0] $end
$upscope $end
$upscope $end
$upscope $end
$enddefinitions $end
#0
0!
1"
0#
b00000000000000000000000000000001 $
b00100000000010000000000000000000 %
1&
0'
0(
b00100000000010000000000000000000 )
b00000000000000000000000000000001 *
b00100000000010000000000000000000 +
b00000000000000000000000000000001 ,
0-
0.
0/
10
01
12
03
b010 4
b001000 5
b000000 6
07
08
09
1:
0;
1<
0=
b010 >
b00 ?
b001000 @
0A
0B
0C
1D
0E
1F
0G
b00 H
b000000 I
b00 J
b010 K
0L
0M
0N
1O
0P
1Q
0R
0S
1T
0U
b010 V
b00000000000000000000000000000001 W
b00100000000010000000000000000000 X
0Y
0Z
b00000000000010000000000000000000 [
b00000000000000000000000000000001 \
b00000000000000000000000000000001 ]
b00000000000000000000000000000001 ^
b00000000000000000000000000000000 _
b00100000000010000000000000000000 `
b00000000000000000000000000000001 a
b00000000000000000000000000000000 b
b00000000000000000000000000000000 c
bUUUUUUUUUUUUUUUUUUUUUUUUUUUUUUUU d
bXXXXXXXXXXXXXXXXXXXXXXXXXXXXXXXX e
bUUUUUUUUUUUUUUUUUUUUUUUUUUUUUUUU f
bUUUUUUUUUUUUUUUUUUUUUUUUUUUUUUUU g
bXXXXXXXXXXXXXXXXXXXXXXXXXXXXXXXX h
b01000 i
bUUUUUUUUUUUUUUUUUUUUUUUUUUUUUUUU j
b00000000000000000000000000000001 k
b00000000000000000000000000000001 l
0m
b00000000000000000000000000000001 n
b00000000000000000000000000000001 o
b00000000000010000000000000000000 p
0q
b00000000000000000000000000000001 r
b00000000000000000000000000000001 s
1t
0u
b00000000000000000000000000000000 v
b00000000000000000000000000000000 w
b00000000000000000000000000000001 x
b00000000000000000000000000000001 y
b000000 z
b00100000000010000000000000000000 {
b00000 |
b01000 }
b01000 !"
bXXXXXXXXXXXXXXXXXXXXXXXXXXXXXXXX ""
1#"
0$"
bUUUUUUUUUUUUUUUUUUUUUUUUUUUUUUUU %"
bUUUUUUUUUUUUUUUUUUUUUUUUUUUUUUUU &"
b00000000000000000000000000000000 '"
b0000000000000000 ("
b01000 )"
b00000 *"
0+"
b01000 ,"
bUUUUUUUUUUUUUUUUUUUUUUUUUUUUUUUU -"
b00000000000000000000000000000000 ."
1/"
b00000000000000000000000000000000 0"
bUUUUUUUUUUUUUUUUUUUUUUUUUUUUUUUU 1"
b00000000000000000000000000000000 2"
b010 3"
bXXXXXXXXXXXXXXXXXXXXXXXXXXXXXXXX 4"
05"
bXXXXXXXXXXXXXXXXXXXXXXXXXXXXXXXX 6"
b00000000000000000000000000000000 7"
b00000000000000000000000000000001 8"
b00000000000000000000000000000001 9"
0:"
0;"
bXXXXXXXXXXXXXXXXXXXXXXXXXXXXXXXX <"
bUUUUUUUUUUUUUUUUUUUUUUUUUUUUUUUU ="
bUUUUUUUUUUUUUUUUUUUUUUUUUUUUUUUU >"
0?"
bXXXXXXXXXXXXXXXXXXXXXXXXXXXXXXXX @"
bUUUUUUUUUUUUUUUUUUUUUUUUUUUUUUUU A"
0B"
bXXXXXXXXXXXXXXXXXXXXXXXXXXXXXXXX C"
#100000000
0"
1#
b00000000000000000000000000000010 $
b00100000000010010000000000000001 %
0&
1'
b00100000000010010000000000000001 )
b00000000000000000000000000000010 *
b00100000000010010000000000000001 +
b00000000000000000000000000000010 ,
b000001 6
b000001 I
0T
1U
b00000000000000000000000000000010 W
b00100000000010010000000000000001 X
0Z
b00000000000010010000000000000001 [
b00000000000000000000000000000011 \
b00000000000000000000000000000010 ]
b00000000000000000000000000000010 ^
b00000000000000000000000000000001 _
b00100000000010010000000000000001 `
b00000000000000000000000000000010 a
b00000000000000000000000000000001 b
b00000000000000000000000000000001 c
b00000000000000000000000000000000 d
b00000000000000000000000000000001 e
b00000000000000000000000000000001 h
b01001 i
b00000000000000000000000000000010 k
b00000000000000000000000000000011 l
b00000000000000000000000000000010 n
b00000000000000000000000000000010 o
b00000000000010010000000000000001 p
b00000000000000000000000000000010 r
b00000000000000000000000000000010 s
0t
1u
b00000000000000000000000000000001 v
b00000000000000000000000000000001 w
b00000000000000000000000000000010 y
b000001 z
b00100000000010010000000000000001 {
b01001 }
b01001 !"
b00000000000000000000000000000001 ""
1$"
b00000000000000000000000000000000 %"
b00000000000000000000000000000001 '"
b0000000000000001 ("
b01001 )"
b01001 ,"
b00000000000000000000000000000001 ."
b00000000000000000000000000000001 0"
b00000000000000000000000000000000 1"
b00000000000000000000000000000001 2"
b00000000000000000000000000000001 4"
05"
b00000000000000000000000000000001 6"
b00000000000000000000000000000001 7"
b00000000000000000000000000000010 8"
b00000000000000000000000000000011 9"
1:"
b00000000000000000000000000000001 <"
b00000000000000000000000000000001 @"
b00000000000000000000000000000001 C"
#200000000
0#
0'
0U
0u
0$"
0:"
#300000000
1#
b00000000000000000000000000000011 $
b00100000000010100000000000000010 %
1'
b00100000000010100000000000000010 )
b00000000000000000000000000000011 *
b00100000000010100000000000000010 +
b00000000000000000000000000000011 ,
b000010 6
b000010 I
1U
b00000000000000000000000000000011 W
b00100000000010100000000000000010 X
b00000000000010100000000000000010 [
b00000000000000000000000000000101 \
b00000000000000000000000000000011 ]
b00000000000000000000000000000011 ^
b00000000000000000000000000000010 _
b00100000000010100000000000000010 `
b00000000000000000000000000000011 a
b00000000000000000000000000000010 b
b00000000000000000000000000000010 c
b00000000000000000000000000000010 e
b00000000000000000000000000000010 h
b01010 i
b00000000000000000000000000000011 k
b00000000000000000000000000000101 l
b00000000000000000000000000000011 n
b00000000000000000000000000000011 o
b00000000000010100000000000000010 p
b00000000000000000000000000000011 r
b00000000000000000000000000000011 s
1u
b00000000000000000000000000000010 v
b00000000000000000000000000000010 w
b00000000000000000000000000000011 y
b000010 z
b00100000000010100000000000000010 {
b01010 }
b01010 !"
b00000000000000000000000000000010 ""
1$"
b00000000000000000000000000000010 '"
b0000000000000010 ("
b01010 )"
b01010 ,"
b00000000000000000000000000000010 ."
b00000000000000000000000000000010 0"
b00000000000000000000000000000010 2"
b00000000000000000000000000000010 4"
b00000000000000000000000000000010 6"
b00000000000000000000000000000010 7"
b00000000000000000000000000000011 8"
b00000000000000000000000000000101 9"
1:"
b00000000000000000000000000000010 <"
b00000000000000000000000000000010 @"
b00000000000000000000000000000010 C"
#400000000
0#
0'
0U
0u
0$"
0:"
#500000000
1#
b00000000000000000000000000000100 $
b00100000000010110000000000000011 %
1'
b00100000000010110000000000000011 )
b00000000000000000000000000000100 *
b00100000000010110000000000000011 +
b00000000000000000000000000000100 ,
b000011 6
b000011 I
1U
b00000000000000000000000000000100 W
b00100000000010110000000000000011 X
b00000000000010110000000000000011 [
b00000000000000000000000000000111 \
b00000000000000000000000000000100 ]
b00000000000000000000000000000100 ^
b00000000000000000000000000000011 _
b00100000000010110000000000000011 `
b00000000000000000000000000000100 a
b00000000000000000000000000000011 b
b00000000000000000000000000000011 c
b00000000000000000000000000000011 e
b00000000000000000000000000000011 h
b01011 i
b00000000000000000000000000000100 k
b00000000000000000000000000000111 l
b00000000000000000000000000000100 n
b00000000000000000000000000000100 o
b00000000000010110000000000000011 p
b00000000000000000000000000000100 r
b00000000000000000000000000000100 s
1u
b00000000000000000000000000000011 v
b00000000000000000000000000000011 w
b00000000000000000000000000000100 y
b000011 z
b00100000000010110000000000000011 {
b01011 }
b01011 !"
b00000000000000000000000000000011 ""
1$"
b00000000000000000000000000000011 '"
b0000000000000011 ("
b01011 )"
b01011 ,"
b00000000000000000000000000000011 ."
b00000000000000000000000000000011 0"
b00000000000000000000000000000011 2"
b00000000000000000000000000000011 4"
b00000000000000000000000000000011 6"
b00000000000000000000000000000011 7"
b00000000000000000000000000000100 8"
b00000000000000000000000000000111 9"
1:"
b00000000000000000000000000000011 <"
b00000000000000000000000000000011 @"
b00000000000000000000000000000011 C"
#600000000
0#
0'
0U
0u
0$"
0:"
#700000000
1#
b00000000000000000000000000000101 $
b00100000000011000000000000000100 %
1'
b00100000000011000000000000000100 )
b00000000000000000000000000000101 *
b00100000000011000000000000000100 +
b00000000000000000000000000000101 ,
b000100 6
b000100 I
1U
b00000000000000000000000000000101 W
b00100000000011000000000000000100 X
b00000000000011000000000000000100 [
b00000000000000000000000000001001 \
b00000000000000000000000000000101 ]
b00000000000000000000000000000101 ^
b00000000000000000000000000000100 _
b00100000000011000000000000000100 `
b00000000000000000000000000000101 a
b00000000000000000000000000000100 b
b00000000000000000000000000000100 c
b00000000000000000000000000000100 e
b00000000000000000000000000000100 h
b01100 i
b00000000000000000000000000000101 k
b00000000000000000000000000001001 l
b00000000000000000000000000000101 n
b00000000000000000000000000000101 o
b00000000000011000000000000000100 p
b00000000000000000000000000000101 r
b00000000000000000000000000000101 s
1u
b00000000000000000000000000000100 v
b00000000000000000000000000000100 w
b00000000000000000000000000000101 y
b000100 z
b00100000000011000000000000000100 {
b01100 }
b01100 !"
b00000000000000000000000000000100 ""
1$"
b00000000000000000000000000000100 '"
b0000000000000100 ("
b01100 )"
b01100 ,"
b00000000000000000000000000000100 ."
b00000000000000000000000000000100 0"
b00000000000000000000000000000100 2"
b00000000000000000000000000000100 4"
b00000000000000000000000000000100 6"
b00000000000000000000000000000100 7"
b00000000000000000000000000000101 8"
b00000000000000000000000000001001 9"
1:"
b00000000000000000000000000000100 <"
b00000000000000000000000000000100 @"
b00000000000000000000000000000100 C"
#800000000
0#
0'
0U
0u
0$"
0:"
#900000000
1#
b00000000000000000000000000000110 $
b00100000000011010000000000000101 %
1'
b00100000000011010000000000000101 )
b00000000000000000000000000000110 *
b00100000000011010000000000000101 +
b00000000000000000000000000000110 ,
b000101 6
b000101 I
1U
b00000000000000000000000000000110 W
b00100000000011010000000000000101 X
b00000000000011010000000000000101 [
b00000000000000000000000000001011 \
b00000000000000000000000000000110 ]
b00000000000000000000000000000110 ^
b00000000000000000000000000000101 _
b00100000000011010000000000000101 `
b00000000000000000000000000000110 a
b00000000000000000000000000000101 b
b00000000000000000000000000000101 c
b00000000000000000000000000000101 e
b00000000000000000000000000000101 h
b01101 i
b00000000000000000000000000000110 k
b00000000000000000000000000001011 l
b00000000000000000000000000000110 n
b00000000000000000000000000000110 o
b00000000000011010000000000000101 p
b00000000000000000000000000000110 r
b00000000000000000000000000000110 s
1u
b00000000000000000000000000000101 v
b00000000000000000000000000000101 w
b00000000000000000000000000000110 y
b000101 z
b00100000000011010000000000000101 {
b01101 }
b01101 !"
b00000000000000000000000000000101 ""
1$"
b00000000000000000000000000000101 '"
b0000000000000101 ("
b01101 )"
b01101 ,"
b00000000000000000000000000000101 ."
b00000000000000000000000000000101 0"
b00000000000000000000000000000101 2"
b00000000000000000000000000000101 4"
b00000000000000000000000000000101 6"
b00000000000000000000000000000101 7"
b00000000000000000000000000000110 8"
b00000000000000000000000000001011 9"
1:"
b00000000000000000000000000000101 <"
b00000000000000000000000000000101 @"
b00000000000000000000000000000101 C"
#1000000000
0#
0'
0U
0u
0$"
0:"
#1100000000
1#
b00000000000000000000000000000111 $
b00100000000011100000000000000110 %
1'
b00100000000011100000000000000110 )
b00000000000000000000000000000111 *
b00100000000011100000000000000110 +
b00000000000000000000000000000111 ,
b000110 6
b000110 I
1U
b00000000000000000000000000000111 W
b00100000000011100000000000000110 X
b00000000000011100000000000000110 [
b00000000000000000000000000001101 \
b00000000000000000000000000000111 ]
b00000000000000000000000000000111 ^
b00000000000000000000000000000110 _
b00100000000011100000000000000110 `
b00000000000000000000000000000111 a
b00000000000000000000000000000110 b
b00000000000000000000000000000110 c
b00000000000000000000000000000110 e
b00000000000000000000000000000110 h
b01110 i
b00000000000000000000000000000111 k
b00000000000000000000000000001101 l
b00000000000000000000000000000111 n
b00000000000000000000000000000111 o
b00000000000011100000000000000110 p
b00000000000000000000000000000111 r
b00000000000000000000000000000111 s
1u
b00000000000000000000000000000110 v
b00000000000000000000000000000110 w
b00000000000000000000000000000111 y
b000110 z
b00100000000011100000000000000110 {
b01110 }
b01110 !"
b00000000000000000000000000000110 ""
1$"
b00000000000000000000000000000110 '"
b0000000000000110 ("
b01110 )"
b01110 ,"
b00000000000000000000000000000110 ."
b00000000000000000000000000000110 0"
b00000000000000000000000000000110 2"
b00000000000000000000000000000110 4"
b00000000000000000000000000000110 6"
b00000000000000000000000000000110 7"
b00000000000000000000000000000111 8"
b00000000000000000000000000001101 9"
1:"
b00000000000000000000000000000110 <"
b00000000000000000000000000000110 @"
b00000000000000000000000000000110 C"
#1200000000
0#
0'
0U
0u
0$"
0:"
#1300000000
1#
b00000000000000000000000000001000 $
b00100000000011110000000000000111 %
1'
b00100000000011110000000000000111 )
b00000000000000000000000000001000 *
b00100000000011110000000000000111 +
b00000000000000000000000000001000 ,
b000111 6
b000111 I
1U
b00000000000000000000000000001000 W
b00100000000011110000000000000111 X
b00000000000011110000000000000111 [
b00000000000000000000000000001111 \
b00000000000000000000000000001000 ]
b00000000000000000000000000001000 ^
b00000000000000000000000000000111 _
b00100000000011110000000000000111 `
b00000000000000000000000000001000 a
b00000000000000000000000000000111 b
b00000000000000000000000000000111 c
b00000000000000000000000000000111 e
b00000000000000000000000000000111 h
b01111 i
b00000000000000000000000000001000 k
b00000000000000000000000000001111 l
b00000000000000000000000000001000 n
b00000000000000000000000000001000 o
b00000000000011110000000000000111 p
b00000000000000000000000000001000 r
b00000000000000000000000000001000 s
1u
b00000000000000000000000000000111 v
b00000000000000000000000000000111 w
b00000000000000000000000000001000 y
b000111 z
b00100000000011110000000000000111 {
b01111 }
b01111 !"
b00000000000000000000000000000111 ""
1$"
b00000000000000000000000000000111 '"
b0000000000000111 ("
b01111 )"
b01111 ,"
b00000000000000000000000000000111 ."
b00000000000000000000000000000111 0"
b00000000000000000000000000000111 2"
b00000000000000000000000000000111 4"
b00000000000000000000000000000111 6"
b00000000000000000000000000000111 7"
b00000000000000000000000000001000 8"
b00000000000000000000000000001111 9"
1:"
b00000000000000000000000000000111 <"
b00000000000000000000000000000111 @"
b00000000000000000000000000000111 C"
#1400000000
0#
0'
0U
0u
0$"
0:"
#1500000000
1#
b00000000000000000000000000001001 $
b10101100000010000000000000000000 %
1'
b10101100000010000000000000000000 )
b00000000000000000000000000001001 *
b10101100000010000000000000000000 +
b00000000000000000000000000001001 ,
1.
02
b101011 5
b000000 6
18
0<
b101011 @
1B
0F
b000000 I
1M
0Q
1U
b00000000000000000000000000001001 W
b10101100000010000000000000000000 X
1Z
b00000000000010000000000000000000 [
b00000000000000000000000000001001 \
b00000000000000000000000000001001 ]
b00000000000000000000000000001001 ^
b00000000000000000000000000001000 _
b10101100000010000000000000000000 `
b00000000000000000000000000001001 a
b00000000000000000000000000000000 b
b00000000000000000000000000000000 c
b00000000000000000000000000000000 e
b00000000000000000000000000000000 h
b01000 i
b00000000000000000000000000001001 k
b00000000000000000000000000001001 l
b00000000000000000000000000001001 n
b00000000000000000000000000001001 o
b00000000000010000000000000000000 p
b00000000000000000000000000001001 r
b00000000000000000000000000001001 s
1u
b00000000000000000000000000001000 v
b00000000000000000000000000001000 w
b00000000000000000000000000001001 y
b001000 z
b10101100000010000000000000000000 {
b01000 }
b01000 !"
b00000000000000000000000000000000 ""
0#"
1$"
b00000000000000000000000000000000 '"
b0000000000000000 ("
b01000 )"
b01000 ,"
b00000000000000000000000000000000 ."
b00000000000000000000000000000000 0"
b00000000000000000000000000000000 2"
b00000000000000000000000000000000 4"
15"
b00000000000000000000000000000000 6"
b00000000000000000000000000000000 7"
b00000000000000000000000000001001 8"
b00000000000000000000000000001001 9"
1:"
1;"
b00000000000000000000000000000000 <"
b00000000000000000000000000000000 @"
b00000000000000000000000000000000 C"
#1600000000
0#
0'
0U
0u
0$"
0:"
#1700000000
1#
b00000000000000000000000000001010 $
b10101100000010010000000000000100 %
1'
b10101100000010010000000000000100 )
b00000000000000000000000000001010 *
b10101100000010010000000000000100 +
b00000000000000000000000000001010 ,
b000100 6
b000100 I
1U
b00000000000000000000000000001010 W
b10101100000010010000000000000100 X
0Z
b00000000000010010000000000000100 [
b00000000000000000000000000001110 \
b00000000000000000000000000001010 ]
b00000000000000000000000000001010 ^
b00000000000000000000000000001001 _
b10101100000010010000000000000100 `
b00000000000000000000000000001010 a
b00000000000000000000000000000100 b
b00000000000000000000000000000100 c
b00000000000000000000000000000100 e
bXXXXXXXXXXXXXXXXXXXXXXXXXXXXXXXX f
b00000000000000000000000000000100 h
b01001 i
b00000000000000000000000000001010 k
b00000000000000000000000000001110 l
b00000000000000000000000000001010 n
b00000000000000000000000000001010 o
b00000000000010010000000000000100 p
b00000000000000000000000000001010 r
b00000000000000000000000000001010 s
1u
b00000000000000000000000000001001 v
b00000000000000000000000000001001 w
b00000000000000000000000000001010 y
b001001 z
b10101100000010010000000000000100 {
b01001 }
b01001 !"
b00000000000000000000000000000100 ""
1$"
bXXXXXXXXXXXXXXXXXXXXXXXXXXXXXXXX &"
b00000000000000000000000000000100 '"
b0000000000000100 ("
b01001 )"
b01001 ,"
bXXXXXXXXXXXXXXXXXXXXXXXXXXXXXXXX -"
b00000000000000000000000000000100 ."
b00000000000000000000000000000100 0"
b00000000000000000000000000000100 2"
b00000000000000000000000000000100 4"
05"
b00000000000000000000000000000100 6"
b00000000000000000000000000000100 7"
b00000000000000000000000000001010 8"
b00000000000000000000000000001110 9"
1:"
b00000000000000000000000000000100 <"
bXXXXXXXXXXXXXXXXXXXXXXXXXXXXXXXX ="
b00000000000000000000000000000100 @"
b00000000000000000000000000000100 C"
#1800000000
0#
0'
0U
0u
0$"
0:"
#1900000000
1#
b00000000000000000000000000001011 $
b10101100000010100000000000001000 %
1'
b10101100000010100000000000001000 )
b00000000000000000000000000001011 *
b10101100000010100000000000001000 +
b00000000000000000000000000001011 ,
b001000 6
b001000 I
1U
b00000000000000000000000000001011 W
b10101100000010100000000000001000 X
b00000000000010100000000000001000 [
b00000000000000000000000000010011 \
b00000000000000000000000000001011 ]
b00000000000000000000000000001011 ^
b00000000000000000000000000001010 _
b10101100000010100000000000001000 `
b00000000000000000000000000001011 a
b00000000000000000000000000001000 b
b00000000000000000000000000001000 c
b00000000000000000000000000001000 e
b00000000000000000000000000000001 f
bUUUUUUUUUUUUUUUUUUUUUUUUUUUUUUUU g
b00000000000000000000000000001000 h
b01010 i
b00000000000000000000000000001011 k
b00000000000000000000000000010011 l
b00000000000000000000000000001011 n
b00000000000000000000000000001011 o
b00000000000010100000000000001000 p
b00000000000000000000000000001011 r
b00000000000000000000000000001011 s
1u
b00000000000000000000000000001010 v
b00000000000000000000000000001010 w
b00000000000000000000000000001011 y
b001010 z
b10101100000010100000000000001000 {
b01010 }
b01010 !"
b00000000000000000000000000001000 ""
1$"
b00000000000000000000000000000001 &"
b00000000000000000000000000001000 '"
b0000000000001000 ("
b01010 )"
b01010 ,"
b00000000000000000000000000000001 -"
b00000000000000000000000000001000 ."
b00000000000000000000000000001000 0"
b00000000000000000000000000001000 2"
b00000000000000000000000000001000 4"
b00000000000000000000000000001000 6"
b00000000000000000000000000001000 7"
b00000000000000000000000000001011 8"
b00000000000000000000000000010011 9"
1:"
b00000000000000000000000000001000 <"
b00000000000000000000000000000001 ="
bUUUUUUUUUUUUUUUUUUUUUUUUUUUUUUUU >"
b00000000000000000000000000001000 @"
bUUUUUUUUUUUUUUUUUUUUUUUUUUUUUUUU A"
b00000000000000000000000000001000 C"
#2000000000
0#
0'
0U
0u
0$"
0:"
#2100000000
1#
b00000000000000000000000000001100 $
b10101100000010110000000000001100 %
1'
b10101100000010110000000000001100 )
b00000000000000000000000000001100 *
b10101100000010110000000000001100 +
b00000000000000000000000000001100 ,
b001100 6
b001100 I
1U
b00000000000000000000000000001100 W
b10101100000010110000000000001100 X
b00000000000010110000000000001100 [
b00000000000000000000000000011000 \
b00000000000000000000000000001100 ]
b00000000000000000000000000001100 ^
b00000000000000000000000000001011 _
b10101100000010110000000000001100 `
b00000000000000000000000000001100 a
b00000000000000000000000000001100 b
b00000000000000000000000000001100 c
b00000000000000000000000000001100 e
b00000000000000000000000000000010 f
bUUUUUUUUUUUUUUUUUUUUUUUUUUUUUUUU g
b00000000000000000000000000001100 h
b01011 i
b00000000000000000000000000001100 k
b00000000000000000000000000011000 l
b00000000000000000000000000001100 n
b00000000000000000000000000001100 o
b00000000000010110000000000001100 p
b00000000000000000000000000001100 r
b00000000000000000000000000001100 s
1u
b00000000000000000000000000001011 v
b00000000000000000000000000001011 w
b00000000000000000000000000001100 y
b001011 z
b10101100000010110000000000001100 {
b01011 }
b01011 !"
b00000000000000000000000000001100 ""
1$"
b00000000000000000000000000000010 &"
b00000000000000000000000000001100 '"
b0000000000001100 ("
b01011 )"
b01011 ,"
b00000000000000000000000000000010 -"
b00000000000000000000000000001100 ."
b00000000000000000000000000001100 0"
b00000000000000000000000000001100 2"
b00000000000000000000000000001100 4"
b00000000000000000000000000001100 6"
b00000000000000000000000000001100 7"
b00000000000000000000000000001100 8"
b00000000000000000000000000011000 9"
1:"
b00000000000000000000000000001100 <"
b00000000000000000000000000000010 ="
bUUUUUUUUUUUUUUUUUUUUUUUUUUUUUUUU >"
b00000000000000000000000000001100 @"
bUUUUUUUUUUUUUUUUUUUUUUUUUUUUUUUU A"
b00000000000000000000000000001100 C"
#2200000000
0#
0'
0U
0u
0$"
0:"
#2300000000
1#
b00000000000000000000000000001101 $
b10101100000011000000000000010000 %
1'
b10101100000011000000000000010000 )
b00000000000000000000000000001101 *
b10101100000011000000000000010000 +
b00000000000000000000000000001101 ,
b010000 6
b010000 I
1U
b00000000000000000000000000001101 W
b10101100000011000000000000010000 X
b00000000000011000000000000010000 [
b00000000000000000000000000011101 \
b00000000000000000000000000001101 ]
b00000000000000000000000000001101 ^
b00000000000000000000000000001100 _
b10101100000011000000000000010000 `
b00000000000000000000000000001101 a
b00000000000000000000000000010000 b
b00000000000000000000000000010000 c
b00000000000000000000000000010000 e
b00000000000000000000000000000011 f
bUUUUUUUUUUUUUUUUUUUUUUUUUUUUUUUU g
b00000000000000000000000000010000 h
b01100 i
b00000000000000000000000000001101 k
b00000000000000000000000000011101 l
b00000000000000000000000000001101 n
b00000000000000000000000000001101 o
b00000000000011000000000000010000 p
b00000000000000000000000000001101 r
b00000000000000000000000000001101 s
1u
b00000000000000000000000000001100 v
b00000000000000000000000000001100 w
b00000000000000000000000000001101 y
b001100 z
b10101100000011000000000000010000 {
b01100 }
b01100 !"
b00000000000000000000000000010000 ""
1$"
b00000000000000000000000000000011 &"
b00000000000000000000000000010000 '"
b0000000000010000 ("
b01100 )"
b01100 ,"
b00000000000000000000000000000011 -"
b00000000000000000000000000010000 ."
b00000000000000000000000000010000 0"
b00000000000000000000000000010000 2"
b00000000000000000000000000010000 4"
b00000000000000000000000000010000 6"
b00000000000000000000000000010000 7"
b00000000000000000000000000001101 8"
b00000000000000000000000000011101 9"
1:"
b00000000000000000000000000010000 <"
b00000000000000000000000000000011 ="
bUUUUUUUUUUUUUUUUUUUUUUUUUUUUUUUU >"
b00000000000000000000000000010000 @"
bUUUUUUUUUUUUUUUUUUUUUUUUUUUUUUUU A"
b00000000000000000000000000010000 C"
#2400000000
0#
0'
0U
0u
0$"
0:"
